{
  "name": "boo-common-lib",
  "authors": [
    {
      "name": "romorin",
      "email": "romorin@posteo.net",
      "url": ""
    }
  ],
  "description": "Common classes used by my boo projects",
  "frameworks": "arduino",
  "platforms": [
    "esp8266",
    "esp32",
    "espressif32",
    "espressif8266"
 ]
}
